{
  "name": "",
  "css_prefix_text": "icon-",
  "css_use_suffix": false,
  "hinting": true,
  "units_per_em": 1000,
  "ascent": 850,
  "glyphs": [
    {
      "uid": "e566d3f1d24f22981f6552d5188e7265",
      "css": "gplus",
      "code": 59392,
      "src": "zocial"
    },
    {
      "uid": "b1ec8e90c2c85cf0035849980a3789b3",
      "css": "twitter",
      "code": 59393,
      "src": "zocial"
    },
    {
      "uid": "57a4f84c40a0c44d47387105f162a427",
      "css": "youtube",
      "code": 59394,
      "src": "zocial"
    },
    {
      "uid": "8045477f6a7ef0bd7caff130ad25b88d",
      "css": "facebook-rect",
      "code": 62209,
      "src": "brandico"
    },
    {
      "uid": "9bf7e14698cccdca37a6f1a02cf7d79e",
      "css": "female",
      "code": 61826,
      "src": "fontawesome"
    },
    {
      "uid": "eea1af32a01c5e7a9ce5675bcff64a7b",
      "css": "laptop",
      "code": 59395,
      "src": "typicons"
    },
    {
      "uid": "c95735c17a10af81448c7fed98a04546",
      "css": "folder-open",
      "code": 59396,
      "src": "fontawesome"
    },
    {
      "uid": "bf882b30900da12fca090d9796bc3030",
      "css": "mail",
      "code": 59397,
      "src": "fontawesome"
    },
    {
      "uid": "ccc2329632396dc096bb638d4b46fb98",
      "css": "mail-alt",
      "code": 61664,
      "src": "fontawesome"
    }
  ]
}