<?xml version="1.0" standalone="no"?>
<!DOCTYPE svg PUBLIC "-//W3C//DTD SVG 1.1//EN" "http://www.w3.org/Graphics/SVG/1.1/DTD/svg11.dtd">
<svg xmlns="http://www.w3.org/2000/svg">
<metadata>Copyright (C) 2018 by original authors @ fontello.com</metadata>
<defs>
<font id="fontello" horiz-adv-x="1000" >
<font-face font-family="fontello" font-weight="400" font-stretch="normal" units-per-em="1000" ascent="850" descent="-150" />
<missing-glyph horiz-adv-x="1000" />
<glyph glyph-name="rain-inv" unicode="&#xe800;" d="M0 506q0 90 64 154t155 65q17 0 31-2 43 61 109 93 68 33 141 33t140-33q66-32 110-93 13 2 31 2 90 0 154-65t64-154-64-154-154-65q-42 0-78 14-88-76-203-76t-203 76q-37-14-78-14-90 0-155 65t-64 154z m187-406q0 35 63 125l16-24q17-26 31-54 15-32 15-47 0-25-18-44t-44-19-44 19-19 44z m252-188q0 35 63 125l15-23q18-27 32-55 15-32 15-47 0-25-18-44t-44-18-44 18-19 44z m248 63q0 35 63 125l15-24q18-26 31-54 16-32 16-47 0-25-18-44t-44-19-44 19-19 44z" horiz-adv-x="1000" />

<glyph glyph-name="sun-1" unicode="&#xe801;" d="M94 350q0 13 9 22t22 9h62q14 0 23-9t9-22-9-23-23-8h-62q-14 0-22 8t-9 23z m119-287q-11 11-11 22t11 23l45 43q10 12 22 12l21-11q10-12 10-23t-10-21l-43-45q-12-11-23-11t-22 11z m0 529q-11 12-11 23t11 22 22 10 23-10l43-45q10-11 10-22t-10-21-22-11l-21 11z m68-242q0 90 65 154t154 64 154-64 64-154-64-154-154-65-154 65-65 154z m63 0q0-65 45-111t111-45 109 44q47 47 47 112t-46 110-110 46-111-46-45-110z m125-375v62q0 14 8 23t23 9 22-9 9-23v-62q0-14-9-23t-22-8-23 8-8 23z m0 687v63q0 13 8 22t23 9 22-9 9-22v-63q0-14-9-22t-22-9-23 9-8 22z m230-554q-11 10-11 21t11 22 21 10l22-10 45-43q10-12 10-23t-10-22-22-11-23 11z m0 441q-11 11-11 21t11 22l43 45q12 10 23 10t22-10 10-22-10-23l-45-43q-11-11-22-11z m82-199q0 13 9 22t22 9h63q13 0 22-9t9-22-9-23-22-8h-63q-14 0-22 8t-9 23z" horiz-adv-x="1000" />

<glyph glyph-name="facebook-rect" unicode="&#xf301;" d="M183 850c-102 0-183-81-183-183l0-634c0-102 81-183 183-183l344 0 0 391-104 0 0 141 104 0 0 120c0 94 61 181 201 181 57 0 100-5 100-5l-4-132s-43 1-90 1c-50 0-58-24-58-62l0-103 152 0-6-141-146 0 0-391 141 0c102 0 183 81 183 183l0 634c0 102-81 183-183 183l-634 0z" horiz-adv-x="1000" />
</font>
</defs>
</svg>